<?xml version="1.0" standalone="no"?>
<!DOCTYPE svg PUBLIC "-//W3C//DTD SVG 1.1//EN" "http://www.w3.org/Graphics/SVG/1.1/DTD/svg11.dtd">
<svg width="310" height="50" viewBox="-155 -30 310 50" xmlns="http://www.w3.org/2000/svg" version="1.1">
<title>OpenSCAD Model</title>
<path d="
M -155,15 L -154.99,15.314 L -154.961,15.6267 L -154.911,15.9369 L -154.843,16.2435 L -154.755,16.5451
 L -154.649,16.8406 L -154.524,17.1289 L -154.382,17.4088 L -154.222,17.6791 L -154.045,17.9389 L -153.853,18.1871
 L -153.645,18.4227 L -153.423,18.6448 L -153.187,18.8526 L -152.939,19.0451 L -152.679,19.2216 L -152.409,19.3815
 L -152.129,19.5241 L -151.841,19.6489 L -151.545,19.7553 L -151.243,19.8429 L -150.937,19.9114 L -150.627,19.9606
 L -150.314,19.9901 L -150,20 L 150,20 L 150.314,19.9901 L 150.627,19.9606 L 150.937,19.9114
 L 151.243,19.8429 L 151.545,19.7553 L 151.841,19.6489 L 152.129,19.5241 L 152.409,19.3815 L 152.679,19.2216
 L 152.939,19.0451 L 153.187,18.8526 L 153.423,18.6448 L 153.645,18.4227 L 153.853,18.1871 L 154.045,17.9389
 L 154.222,17.6791 L 154.382,17.4088 L 154.524,17.1289 L 154.649,16.8406 L 154.755,16.5451 L 154.843,16.2435
 L 154.911,15.9369 L 154.961,15.6267 L 154.99,15.314 L 155,15 L 154.99,14.686 L 154.961,14.3733
 L 154.911,14.0631 L 154.843,13.7566 L 154.755,13.4549 L 154.649,13.1594 L 154.524,12.8711 L 154.382,12.5912
 L 154.222,12.3209 L 154.045,12.0611 L 153.853,11.8129 L 153.645,11.5773 L 153.423,11.3552 L 153.187,11.1474
 L 152.939,10.9549 L 152.679,10.7784 L 152.409,10.6185 L 152.129,10.4759 L 151.841,10.3511 L 151.545,10.2447
 L 151.243,10.1571 L 150.937,10.0886 L 150.627,10.0394 L 150.314,10.0099 L 150,10 L 146.667,10
 L 146.667,13.3333 L 150,13.3333 L 150.105,13.3366 L 150.209,13.3465 L 150.312,13.3629 L 150.414,13.3857
 L 150.515,13.4149 L 150.614,13.4504 L 150.71,13.492 L 150.803,13.5395 L 150.893,13.5928 L 150.98,13.6516
 L 151.062,13.7158 L 151.141,13.7851 L 151.215,13.8591 L 151.284,13.9376 L 151.348,14.0204 L 151.407,14.107
 L 151.461,14.1971 L 151.508,14.2904 L 151.55,14.3865 L 151.585,14.485 L 151.614,14.5855 L 151.637,14.6877
 L 151.654,14.7911 L 151.663,14.8953 L 151.667,15 L 151.663,15.1047 L 151.654,15.2089 L 151.637,15.3123
 L 151.614,15.4145 L 151.585,15.515 L 151.55,15.6135 L 151.508,15.7096 L 151.461,15.8029 L 151.407,15.893
 L 151.348,15.9796 L 151.284,16.0624 L 151.215,16.1409 L 151.141,16.2149 L 151.062,16.2842 L 150.98,16.3484
 L 150.893,16.4072 L 150.803,16.4605 L 150.71,16.508 L 150.614,16.5496 L 150.515,16.5851 L 150.414,16.6143
 L 150.312,16.6371 L 150.209,16.6535 L 150.105,16.6634 L 150,16.6667 L 145,16.6667 L 144.895,16.6634
 L 144.791,16.6535 L 144.688,16.6371 L 144.586,16.6143 L 144.485,16.5851 L 144.386,16.5496 L 144.29,16.508
 L 144.197,16.4605 L 144.107,16.4072 L 144.02,16.3484 L 143.938,16.2842 L 143.859,16.2149 L 143.785,16.1409
 L 143.716,16.0624 L 143.652,15.9796 L 143.593,15.893 L 143.539,15.8029 L 143.492,15.7096 L 143.45,15.6135
 L 143.415,15.515 L 143.386,15.4145 L 143.363,15.3123 L 143.346,15.2089 L 143.337,15.1047 L 143.333,15
 L 143.333,10 L -143.333,10 L -143.333,15 L -143.337,15.1047 L -143.346,15.2089 L -143.363,15.3123
 L -143.386,15.4145 L -143.415,15.515 L -143.45,15.6135 L -143.492,15.7096 L -143.539,15.8029 L -143.593,15.893
 L -143.652,15.9796 L -143.716,16.0624 L -143.785,16.1409 L -143.859,16.2149 L -143.938,16.2842 L -144.02,16.3484
 L -144.107,16.4072 L -144.197,16.4605 L -144.29,16.508 L -144.386,16.5496 L -144.485,16.5851 L -144.586,16.6143
 L -144.688,16.6371 L -144.791,16.6535 L -144.895,16.6634 L -145,16.6667 L -150,16.6667 L -150.105,16.6634
 L -150.209,16.6535 L -150.312,16.6371 L -150.414,16.6143 L -150.515,16.5851 L -150.614,16.5496 L -150.71,16.508
 L -150.803,16.4605 L -150.893,16.4072 L -150.98,16.3484 L -151.062,16.2842 L -151.141,16.2149 L -151.215,16.1409
 L -151.284,16.0624 L -151.348,15.9796 L -151.407,15.893 L -151.461,15.8029 L -151.508,15.7096 L -151.55,15.6135
 L -151.585,15.515 L -151.614,15.4145 L -151.637,15.3123 L -151.654,15.2089 L -151.663,15.1047 L -151.667,15
 L -151.663,14.8953 L -151.654,14.7911 L -151.637,14.6877 L -151.614,14.5855 L -151.585,14.485 L -151.55,14.3865
 L -151.508,14.2904 L -151.461,14.1971 L -151.407,14.107 L -151.348,14.0204 L -151.284,13.9376 L -151.215,13.8591
 L -151.141,13.7851 L -151.062,13.7158 L -150.98,13.6516 L -150.893,13.5928 L -150.803,13.5395 L -150.71,13.492
 L -150.614,13.4504 L -150.515,13.4149 L -150.414,13.3857 L -150.312,13.3629 L -150.209,13.3465 L -150.105,13.3366
 L -150,13.3333 L -146.667,13.3333 L -146.667,10 L -150,10 L -150.314,10.0099 L -150.627,10.0394
 L -150.937,10.0886 L -151.243,10.1571 L -151.545,10.2447 L -151.841,10.3511 L -152.129,10.4759 L -152.409,10.6185
 L -152.679,10.7784 L -152.939,10.9549 L -153.187,11.1474 L -153.423,11.3552 L -153.645,11.5773 L -153.853,11.8129
 L -154.045,12.0611 L -154.222,12.3209 L -154.382,12.5912 L -154.524,12.8711 L -154.649,13.1594 L -154.755,13.4549
 L -154.843,13.7566 L -154.911,14.0631 L -154.961,14.3733 L -154.99,14.686 z
M -132,17.5 L -132,12.5 L -130,12.5 L -130,14.25 L -121.5,14.25 L -121.5,15.75
 L -130,15.75 L -130,17.5 z
M 121.5,15.75 L 121.5,14.25 L 130,14.25 L 130,12.5 L 132,12.5 L 132,17.5
 L 130,17.5 L 130,15.75 z
M -155,-5 L -154.99,-4.68605 L -154.961,-4.37333 L -154.911,-4.06309 L -154.843,-3.75655 L -154.755,-3.45491
 L -154.649,-3.15938 L -154.524,-2.8711 L -154.382,-2.59123 L -154.222,-2.32087 L -154.045,-2.06107 L -153.853,-1.81288
 L -153.645,-1.57726 L -153.423,-1.35516 L -153.187,-1.14743 L -152.939,-0.954914 L -152.679,-0.77836 L -152.409,-0.618466
 L -152.129,-0.475864 L -151.841,-0.351117 L -151.545,-0.244717 L -151.243,-0.157084 L -150.937,-0.088563 L -150.627,-0.0394258
 L -150.314,-0.00986576 L -150,-0 L 150,-0 L 150.314,-0.00986576 L 150.627,-0.0394258 L 150.937,-0.088563
 L 151.243,-0.157084 L 151.545,-0.244717 L 151.841,-0.351117 L 152.129,-0.475864 L 152.409,-0.618466 L 152.679,-0.77836
 L 152.939,-0.954914 L 153.187,-1.14743 L 153.423,-1.35516 L 153.645,-1.57726 L 153.853,-1.81288 L 154.045,-2.06107
 L 154.222,-2.32087 L 154.382,-2.59123 L 154.524,-2.8711 L 154.649,-3.15938 L 154.755,-3.45491 L 154.843,-3.75655
 L 154.911,-4.06309 L 154.961,-4.37333 L 154.99,-4.68605 L 155,-5 L 154.99,-5.31395 L 154.961,-5.62667
 L 154.911,-5.93691 L 154.843,-6.24345 L 154.755,-6.54508 L 154.649,-6.84062 L 154.524,-7.1289 L 154.382,-7.40877
 L 154.222,-7.67913 L 154.045,-7.93893 L 153.853,-8.18712 L 153.645,-8.42274 L 153.423,-8.64484 L 153.187,-8.85257
 L 152.939,-9.04508 L 152.679,-9.22164 L 152.409,-9.38153 L 152.129,-9.52413 L 151.841,-9.64888 L 151.545,-9.75528
 L 151.243,-9.84292 L 150.937,-9.91144 L 150.627,-9.96057 L 150.314,-9.99013 L 150,-10 L 146.667,-10
 L 146.667,-6.66667 L 150,-6.66667 L 150.105,-6.66338 L 150.209,-6.65352 L 150.312,-6.63715 L 150.414,-6.6143
 L 150.515,-6.58509 L 150.614,-6.54963 L 150.71,-6.50804 L 150.803,-6.46051 L 150.893,-6.40721 L 150.98,-6.34836
 L 151.062,-6.28419 L 151.141,-6.21495 L 151.215,-6.14091 L 151.284,-6.06237 L 151.348,-5.97964 L 151.407,-5.89304
 L 151.461,-5.80292 L 151.508,-5.70963 L 151.55,-5.61354 L 151.585,-5.51503 L 151.614,-5.41448 L 151.637,-5.3123
 L 151.654,-5.20889 L 151.663,-5.10465 L 151.667,-5 L 151.663,-4.89535 L 151.654,-4.79111 L 151.637,-4.6877
 L 151.614,-4.58552 L 151.585,-4.48497 L 151.55,-4.38646 L 151.508,-4.29037 L 151.461,-4.19708 L 151.407,-4.10695
 L 151.348,-4.02036 L 151.284,-3.93763 L 151.215,-3.85909 L 151.141,-3.78505 L 151.062,-3.71581 L 150.98,-3.65164
 L 150.893,-3.59279 L 150.803,-3.53949 L 150.71,-3.49195 L 150.614,-3.45037 L 150.515,-3.41491 L 150.414,-3.38569
 L 150.312,-3.36285 L 150.209,-3.34647 L 150.105,-3.33662 L 150,-3.33333 L 145,-3.33333 L 144.895,-3.33662
 L 144.791,-3.34647 L 144.688,-3.36285 L 144.586,-3.38569 L 144.485,-3.41491 L 144.386,-3.45037 L 144.29,-3.49195
 L 144.197,-3.53949 L 144.107,-3.59279 L 144.02,-3.65164 L 143.938,-3.71581 L 143.859,-3.78505 L 143.785,-3.85909
 L 143.716,-3.93763 L 143.652,-4.02036 L 143.593,-4.10695 L 143.539,-4.19708 L 143.492,-4.29037 L 143.45,-4.38646
 L 143.415,-4.48497 L 143.386,-4.58552 L 143.363,-4.6877 L 143.346,-4.79111 L 143.337,-4.89535 L 143.333,-5
 L 143.333,-10 L -143.333,-10 L -143.333,-5 L -143.337,-4.89535 L -143.346,-4.79111 L -143.363,-4.6877
 L -143.386,-4.58552 L -143.415,-4.48497 L -143.45,-4.38646 L -143.492,-4.29037 L -143.539,-4.19708 L -143.593,-4.10695
 L -143.652,-4.02036 L -143.716,-3.93763 L -143.785,-3.85909 L -143.859,-3.78505 L -143.938,-3.71581 L -144.02,-3.65164
 L -144.107,-3.59279 L -144.197,-3.53949 L -144.29,-3.49195 L -144.386,-3.45037 L -144.485,-3.41491 L -144.586,-3.38569
 L -144.688,-3.36285 L -144.791,-3.34647 L -144.895,-3.33662 L -145,-3.33333 L -150,-3.33333 L -150.105,-3.33662
 L -150.209,-3.34647 L -150.312,-3.36285 L -150.414,-3.38569 L -150.515,-3.41491 L -150.614,-3.45037 L -150.71,-3.49195
 L -150.803,-3.53949 L -150.893,-3.59279 L -150.98,-3.65164 L -151.062,-3.71581 L -151.141,-3.78505 L -151.215,-3.85909
 L -151.284,-3.93763 L -151.348,-4.02036 L -151.407,-4.10695 L -151.461,-4.19708 L -151.508,-4.29037 L -151.55,-4.38646
 L -151.585,-4.48497 L -151.614,-4.58552 L -151.637,-4.6877 L -151.654,-4.79111 L -151.663,-4.89535 L -151.667,-5
 L -151.663,-5.10465 L -151.654,-5.20889 L -151.637,-5.3123 L -151.614,-5.41448 L -151.585,-5.51503 L -151.55,-5.61354
 L -151.508,-5.70963 L -151.461,-5.80292 L -151.407,-5.89304 L -151.348,-5.97964 L -151.284,-6.06237 L -151.215,-6.14091
 L -151.141,-6.21495 L -151.062,-6.28419 L -150.98,-6.34836 L -150.893,-6.40721 L -150.803,-6.46051 L -150.71,-6.50804
 L -150.614,-6.54963 L -150.515,-6.58509 L -150.414,-6.6143 L -150.312,-6.63715 L -150.209,-6.65352 L -150.105,-6.66338
 L -150,-6.66667 L -146.667,-6.66667 L -146.667,-10 L -150,-10 L -150.314,-9.99013 L -150.627,-9.96057
 L -150.937,-9.91144 L -151.243,-9.84292 L -151.545,-9.75528 L -151.841,-9.64888 L -152.129,-9.52413 L -152.409,-9.38153
 L -152.679,-9.22164 L -152.939,-9.04508 L -153.187,-8.85257 L -153.423,-8.64484 L -153.645,-8.42274 L -153.853,-8.18712
 L -154.045,-7.93893 L -154.222,-7.67913 L -154.382,-7.40877 L -154.524,-7.1289 L -154.649,-6.84062 L -154.755,-6.54508
 L -154.843,-6.24345 L -154.911,-5.93691 L -154.961,-5.62667 L -154.99,-5.31395 z
M -132,-2.5 L -132,-7.5 L -130,-7.5 L -130,-5.75 L -121.5,-5.75 L -121.5,-4.25
 L -130,-4.25 L -130,-2.5 z
M 121.5,-4.25 L 121.5,-5.75 L 130,-5.75 L 130,-7.5 L 132,-7.5 L 132,-2.5
 L 130,-2.5 L 130,-4.25 z
M -117,-25 L -116.99,-24.686 L -116.961,-24.3733 L -116.911,-24.0631 L -116.843,-23.7565 L -116.755,-23.4549
 L -116.649,-23.1594 L -116.524,-22.8711 L -116.382,-22.5912 L -116.222,-22.3209 L -116.045,-22.0611 L -115.853,-21.8129
 L -115.645,-21.5773 L -115.423,-21.3552 L -115.187,-21.1474 L -114.939,-20.9549 L -114.679,-20.7784 L -114.409,-20.6185
 L -114.129,-20.4759 L -113.841,-20.3511 L -113.545,-20.2447 L -113.243,-20.1571 L -112.937,-20.0886 L -112.627,-20.0394
 L -112.314,-20.0099 L -112,-20 L -112,-22.5 L -110,-22.5 L -110,-20 L 110,-20
 L 110,-22.5 L 112,-22.5 L 112,-20 L 112.314,-20.0099 L 112.627,-20.0394 L 112.937,-20.0886
 L 113.243,-20.1571 L 113.545,-20.2447 L 113.841,-20.3511 L 114.129,-20.4759 L 114.409,-20.6185 L 114.679,-20.7784
 L 114.939,-20.9549 L 115.187,-21.1474 L 115.423,-21.3552 L 115.645,-21.5773 L 115.853,-21.8129 L 116.045,-22.0611
 L 116.222,-22.3209 L 116.382,-22.5912 L 116.524,-22.8711 L 116.649,-23.1594 L 116.755,-23.4549 L 116.843,-23.7565
 L 116.911,-24.0631 L 116.961,-24.3733 L 116.99,-24.686 L 117,-25 L 116.99,-25.314 L 116.961,-25.6267
 L 116.911,-25.9369 L 116.843,-26.2434 L 116.755,-26.5451 L 116.649,-26.8406 L 116.524,-27.1289 L 116.382,-27.4088
 L 116.222,-27.6791 L 116.045,-27.9389 L 115.853,-28.1871 L 115.645,-28.4227 L 115.423,-28.6448 L 115.187,-28.8526
 L 114.939,-29.0451 L 114.679,-29.2216 L 114.409,-29.3815 L 114.129,-29.5241 L 113.841,-29.6489 L 113.545,-29.7553
 L 113.243,-29.8429 L 112.937,-29.9114 L 112.627,-29.9606 L 112.314,-29.9901 L 112,-30 L 112,-27.5
 L 110,-27.5 L 110,-30 L -110,-30 L -110,-27.5 L -112,-27.5 L -112,-30
 L -112.314,-29.9901 L -112.627,-29.9606 L -112.937,-29.9114 L -113.243,-29.8429 L -113.545,-29.7553 L -113.841,-29.6489
 L -114.129,-29.5241 L -114.409,-29.3815 L -114.679,-29.2216 L -114.939,-29.0451 L -115.187,-28.8526 L -115.423,-28.6448
 L -115.645,-28.4227 L -115.853,-28.1871 L -116.045,-27.9389 L -116.222,-27.6791 L -116.382,-27.4088 L -116.524,-27.1289
 L -116.649,-26.8406 L -116.755,-26.5451 L -116.843,-26.2434 L -116.911,-25.9369 L -116.961,-25.6267 L -116.99,-25.314
 z
M -96.7857,-25 L -95.5357,-27.1651 L -93.0357,-27.1651 L -91.7857,-25 L -93.0357,-22.8349 L -95.5357,-22.8349
 z
M -81.0714,-25 L -79.8214,-27.1651 L -77.3214,-27.1651 L -76.0714,-25 L -77.3214,-22.8349 L -79.8214,-22.8349
 z
M -65.3571,-25 L -64.1071,-27.1651 L -61.6071,-27.1651 L -60.3571,-25 L -61.6071,-22.8349 L -64.1071,-22.8349
 z
M -49.6429,-25 L -48.3929,-27.1651 L -45.8929,-27.1651 L -44.6429,-25 L -45.8929,-22.8349 L -48.3929,-22.8349
 z
M -33.9286,-25 L -32.6786,-27.1651 L -30.1786,-27.1651 L -28.9286,-25 L -30.1786,-22.8349 L -32.6786,-22.8349
 z
M -18.2143,-25 L -16.9643,-27.1651 L -14.4643,-27.1651 L -13.2143,-25 L -14.4643,-22.8349 L -16.9643,-22.8349
 z
M -2.5,-25 L -1.25,-27.1651 L 1.25,-27.1651 L 2.5,-25 L 1.25,-22.8349 L -1.25,-22.8349
 z
M 13.2143,-25 L 14.4643,-27.1651 L 16.9643,-27.1651 L 18.2143,-25 L 16.9643,-22.8349 L 14.4643,-22.8349
 z
M 28.9286,-25 L 30.1786,-27.1651 L 32.6786,-27.1651 L 33.9286,-25 L 32.6786,-22.8349 L 30.1786,-22.8349
 z
M 44.6429,-25 L 45.8929,-27.1651 L 48.3929,-27.1651 L 49.6429,-25 L 48.3929,-22.8349 L 45.8929,-22.8349
 z
M 60.3571,-25 L 61.6071,-27.1651 L 64.1071,-27.1651 L 65.3571,-25 L 64.1071,-22.8349 L 61.6071,-22.8349
 z
M 76.0714,-25 L 77.3214,-27.1651 L 79.8214,-27.1651 L 81.0714,-25 L 79.8214,-22.8349 L 77.3214,-22.8349
 z
M 91.7857,-25 L 93.0357,-27.1651 L 95.5357,-27.1651 L 96.7857,-25 L 95.5357,-22.8349 L 93.0357,-22.8349
 z
" stroke="black" fill="lightgray" stroke-width="0.5"/></svg>
