<?xml version="1.0" encoding="UTF-8" standalone="no"?>
<svg
   xmlns:dc="http://purl.org/dc/elements/1.1/"
   xmlns:cc="http://creativecommons.org/ns#"
   xmlns:rdf="http://www.w3.org/1999/02/22-rdf-syntax-ns#"
   xmlns:svg="http://www.w3.org/2000/svg"
   xmlns="http://www.w3.org/2000/svg"
   xmlns:sodipodi="http://sodipodi.sourceforge.net/DTD/sodipodi-0.dtd"
   xmlns:inkscape="http://www.inkscape.org/namespaces/inkscape"
   width="2455.8018"
   height="1012.0236"
   version="1.1"
   id="svg64"
   sodipodi:docname="faceshield_petg_lasercut.svg"
   inkscape:version="0.92.2 (5c3e80d, 2017-08-06)">
  <metadata
     id="metadata68">
    <rdf:RDF>
      <cc:Work
         rdf:about="">
        <dc:format>image/svg+xml</dc:format>
        <dc:type
           rdf:resource="http://purl.org/dc/dcmitype/StillImage" />
        <dc:title></dc:title>
      </cc:Work>
    </rdf:RDF>
  </metadata>
  <sodipodi:namedview
     pagecolor="#ffffff"
     bordercolor="#666666"
     borderopacity="1"
     objecttolerance="10"
     gridtolerance="10"
     guidetolerance="10"
     inkscape:pageopacity="0"
     inkscape:pageshadow="2"
     inkscape:window-width="1600"
     inkscape:window-height="848"
     id="namedview66"
     showgrid="false"
     fit-margin-top="0"
     fit-margin-left="0"
     fit-margin-right="0"
     fit-margin-bottom="0"
     inkscape:zoom="0.21024131"
     inkscape:cx="397.34901"
     inkscape:cy="561.75987"
     inkscape:window-x="-8"
     inkscape:window-y="-8"
     inkscape:window-maximized="1"
     inkscape:current-layer="g18" />
  <desc
     id="desc2">C:\Users\nicarn\Desktop\version1\faceshield_petg_lasercut\faceshield_petg_lasercut.dxf - scale = 1.000000, origin = (0.000000, 0.000000), method = file</desc>
  <defs
     id="defs16">
    <marker
       id="DistanceX"
       orient="auto"
       refX="0"
       refY="0"
       style="overflow:visible">
      <path
         d="M 3,-3 -3,3 M 0,-5 V 5"
         style="stroke:#000000;stroke-width:0.5"
         id="path4"
         inkscape:connector-curvature="0" />
    </marker>
    <pattern
       height="8"
       id="Hatch"
       patternUnits="userSpaceOnUse"
       width="8"
       x="0"
       y="0">
      <path
         d="M8 4 l-4,4"
         linecap="square"
         stroke="#000000"
         stroke-width="0.25"
         id="path7" />
      <path
         d="M6 2 l-4,4"
         linecap="square"
         stroke="#000000"
         stroke-width="0.25"
         id="path9" />
      <path
         d="M4 0 l-4,4"
         linecap="square"
         stroke="#000000"
         stroke-width="0.25"
         id="path11" />
    </pattern>
    <symbol
       id="*Model_Space" />
    <symbol
       id="*Paper_Space" />
  </defs>
  <g
     inkscape:groupmode="layer"
     inkscape:label="0"
     id="g18"
     transform="translate(0.498608,-110.99606)" />
  <g
     inkscape:groupmode="layer"
     inkscape:label="INTERIOR_PROFILES"
     id="g56"
     transform="translate(0.498608,-110.99606)">
    <path
       d="m 2426.4567,988.34645 a 3.779528,3.779528 0 0 1 -3.7795,3.77953 h -1.8898 a 3.779528,3.779528 0 0 1 -3.7795,-3.77953 v -90.70866 a 3.779528,3.779528 0 0 1 3.7795,-3.77953 h 1.8898 a 3.779528,3.779528 0 0 1 3.7795,3.77953 z"
       style="fill:none;stroke:#000000;stroke-linecap:round"
       id="path24"
       inkscape:connector-curvature="0" />
    <path
       d="m 2356.5354,922.20472 a 3.779528,3.779528 0 0 1 -3.7795,-3.77953 v -20.7874 a 3.779528,3.779528 0 0 1 3.7795,-3.77953 h 28.3465 a 3.779528,3.779528 0 0 1 3.7795,3.77953 v 90.70866 a 3.779528,3.779528 0 0 1 -3.7795,3.77953 h -28.3465 a 3.779528,3.779528 0 0 1 -3.7795,-3.77953 v -20.7874 a 3.779528,3.779528 0 0 1 3.7795,-3.77953 h 18.8977 A 3.779528,3.779528 0 0 0 2379.2126,960 v -34.01575 a 3.779528,3.779528 0 0 0 -3.7795,-3.77953 z"
       style="fill:none;stroke:#000000;stroke-linecap:round"
       id="path20"
       inkscape:connector-curvature="0" />
    <path
       d="m 1457.0093,922.20472 a 3.779528,3.779528 0 0 0 3.7795,-3.77953 v -20.7874 a 3.779528,3.779528 0 0 0 -3.7795,-3.77953 h -28.3465 a 3.779528,3.779528 0 0 0 -3.7795,3.77953 v 90.70866 a 3.779528,3.779528 0 0 0 3.7795,3.77953 h 28.3465 a 3.779528,3.779528 0 0 0 3.7795,-3.77953 v -20.7874 a 3.779528,3.779528 0 0 0 -3.7795,-3.77953 h -18.8977 a 3.779528,3.779528 0 0 1 -3.7795,-3.77953 v -34.01575 a 3.779528,3.779528 0 0 1 3.7795,-3.77952 z"
       style="fill:none;stroke:#000000;stroke-linecap:round"
       id="path22"
       inkscape:connector-curvature="0" />
    <path
       d="m 1387.088,988.34645 a 3.779528,3.779528 0 0 0 3.7795,3.77953 h 1.8898 a 3.779528,3.779528 0 0 0 3.7795,-3.77953 v -90.70866 a 3.779528,3.779528 0 0 0 -3.7795,-3.77953 h -1.8898 a 3.779528,3.779528 0 0 0 -3.7795,3.77953 z"
       style="fill:none;stroke:#000000;stroke-linecap:round"
       id="path26"
       inkscape:connector-curvature="0" />
    <path
       d="m 75.591943,1086.6142 v -22.6772 a 1.889764,1.889764 0 0 0 -3.779528,0 v 22.6772 a 1.889764,1.889764 0 0 0 3.779528,0 z"
       style="fill:none;stroke:#000000;stroke-linecap:round"
       id="path32"
       inkscape:connector-curvature="0" />
    <path
       d="m 113.38722,1086.6142 v -22.6772 a 1.889765,1.889765 0 0 0 -3.77953,0 v 22.6772 a 1.889765,1.889765 0 0 0 3.77953,0 z"
       style="fill:none;stroke:#000000;stroke-linecap:round"
       id="path34"
       inkscape:connector-curvature="0" />
    <path
       d="m 151.18249,1086.6142 v -22.6772 a 1.889764,1.889764 0 0 0 -3.77952,0 v 22.6772 a 1.889764,1.889764 0 0 0 3.77952,0 z"
       style="fill:none;stroke:#000000;stroke-linecap:round"
       id="path36"
       inkscape:connector-curvature="0" />
    <path
       d="m 188.97777,1086.6142 v -22.6772 a 1.889765,1.889765 0 0 0 -3.77953,0 v 22.6772 a 1.889765,1.889765 0 0 0 3.77953,0 z"
       style="fill:none;stroke:#000000;stroke-linecap:round"
       id="path38"
       inkscape:connector-curvature="0" />
    <path
       d="m 226.77304,1086.6142 v -22.6772 a 1.889764,1.889764 0 0 0 -3.77952,0 v 22.6772 a 1.889764,1.889764 0 0 0 3.77952,0 z"
       style="fill:none;stroke:#000000;stroke-linecap:round"
       id="path40"
       inkscape:connector-curvature="0" />
    <path
       d="m 264.56832,1086.6142 v -22.6772 a 1.889765,1.889765 0 0 0 -3.77953,0 v 22.6772 a 1.889765,1.889765 0 0 0 3.77953,0 z"
       style="fill:none;stroke:#000000;stroke-linecap:round"
       id="path42"
       inkscape:connector-curvature="0" />
    <path
       d="m 302.3636,1086.6142 v -22.6772 a 1.889765,1.889765 0 0 0 -3.77953,0 v 22.6772 a 1.889765,1.889765 0 0 0 3.77953,0 z"
       style="fill:none;stroke:#000000;stroke-linecap:round"
       id="path44"
       inkscape:connector-curvature="0" />
    <path
       d="m 340.15887,1086.6142 v -22.6772 a 1.889765,1.889765 0 0 0 -3.77953,0 v 22.6772 a 1.889765,1.889765 0 0 0 3.77953,0 z"
       style="fill:none;stroke:#000000;stroke-linecap:round"
       id="path46"
       inkscape:connector-curvature="0" />
    <path
       d="m 377.95415,1086.6142 v -22.6772 a 1.889765,1.889765 0 0 0 -3.77953,0 v 22.6772 a 1.889765,1.889765 0 0 0 3.77953,0 z"
       style="fill:none;stroke:#000000;stroke-linecap:round"
       id="path48"
       inkscape:connector-curvature="0" />
    <path
       d="m 415.74942,1086.6142 v -22.6772 a 1.889764,1.889764 0 0 0 -3.77952,0 v 22.6772 a 1.889764,1.889764 0 0 0 3.77952,0 z"
       style="fill:none;stroke:#000000;stroke-linecap:round"
       id="path50"
       inkscape:connector-curvature="0" />
    <path
       d="m 1403.151,1097.9528 a 3.779528,3.779528 0 0 1 -3.7795,-3.7796 v -37.7952 a 3.779528,3.779528 0 0 1 3.7795,-3.7796 h 1.8898 a 3.779528,3.779528 0 0 1 3.7795,3.7796 v 37.7952 a 3.779528,3.779528 0 0 1 -3.7795,3.7796 z"
       style="fill:none;stroke:#000000;stroke-linecap:round"
       id="path28"
       inkscape:connector-curvature="0" />
    <path
       d="m 2164.7244,1097.9528 a 3.779528,3.779528 0 0 0 3.7795,-3.7796 v -37.7952 a 3.779528,3.779528 0 0 0 -3.7795,-3.7796 h -1.8898 a 3.779528,3.779528 0 0 0 -3.7795,3.7796 v 37.7952 a 3.779528,3.779528 0 0 0 3.7795,3.7796 z"
       style="fill:none;stroke:#000000;stroke-linecap:round"
       id="path30"
       inkscape:connector-curvature="0" />
    <path
       d="m 2375.4331,1101.7323 a 3.779528,3.779528 0 0 0 3.7795,-3.7795 v -45.3544 a 3.779528,3.779528 0 0 0 -3.7795,-3.7795 h -1.8898 a 3.779528,3.779528 0 0 0 -3.7795,3.7795 v 45.3544 a 3.779528,3.779528 0 0 0 3.7795,3.7795 z"
       style="fill:none;stroke:#000000;stroke-linecap:round"
       id="path54"
       inkscape:connector-curvature="0" />
    <path
       d="m 2420.7874,1086.6142 a 3.779528,3.779528 0 0 1 -3.7795,-3.7796 v -15.1181 a 3.779528,3.779528 0 0 1 3.7795,-3.7795 h 11.3386 a 3.779528,3.779528 0 0 0 3.7795,-3.7795 v -7.5591 a 3.779528,3.779528 0 0 0 -3.7795,-3.7795 h -20.7874 a 3.779528,3.779528 0 0 0 -3.7795,3.7795 v 45.3544 a 3.779528,3.779528 0 0 0 3.7795,3.7795 h 20.7874 a 3.779528,3.779528 0 0 0 3.7795,-3.7795 v -7.5591 a 3.779528,3.779528 0 0 0 -3.7795,-3.7795 z"
       style="fill:none;stroke:#000000;stroke-linecap:round"
       id="path52"
       inkscape:connector-curvature="0" />
  </g>
  <g
     inkscape:groupmode="layer"
     inkscape:label="OUTER_PROFILES"
     id="g62"
     transform="translate(0.498608,-110.99606)">
    <path
       d="m 2171.3386,111.49606 a 188.97638,188.97638 0 0 1 188.9764,188.97638 v 529.13385 a 37.795276,37.795276 0 0 0 37.7952,37.79528 h 18.8977 a 37.795276,37.795276 0 0 1 37.7953,37.79528 v 75.59055 a 37.795278,37.795278 0 0 1 -37.7953,37.7953 H 1396.5368 a 37.795276,37.795276 0 0 1 -37.7953,-37.7953 v -75.59055 a 37.795276,37.795276 0 0 1 37.7953,-37.79528 h 18.8977 a 37.795276,37.795276 0 0 0 37.7952,-37.79527 V 300.47244 a 188.97638,188.97638 0 0 1 188.9764,-188.97638 z"
       style="fill:none;stroke:#000000;stroke-linecap:round"
       id="path58"
       inkscape:connector-curvature="0" />
    <path
       d="m 0.001392,1060.1575 v 30.2362 a 9.448819,9.448819 0 0 0 9.448819,9.4488 H 1207.5604 a 22.677145,22.677145 0 0 1 18.1418,9.0709 l 4.5354,6.0472 a 18.897663,18.897663 0 0 0 15.1181,7.5591 h 1190.5498 a 18.897638,18.897638 0 0 0 18.8977,-18.8977 v -56.6929 a 18.897638,18.897638 0 0 0 -18.8977,-18.8976 H 1245.3557 a 18.897638,18.897638 0 0 0 -15.1181,7.559 l -4.5354,6.0473 a 22.677165,22.677165 0 0 1 -18.1418,9.0709 H 9.450211 a 9.448819,9.448819 0 0 0 -9.448819,9.4488 z"
       style="fill:none;stroke:#000000;stroke-linecap:round"
       id="path60"
       inkscape:connector-curvature="0" />
  </g>
</svg>
